# 3ds Max Wavefront OBJ Exporter v0.97b - (c)2007 guruware
# File Created: 10.05.2021 22:47:52

mtllib car_red.mtl

#
# object Box001
#

v  -8.3835 0.0000 -10.1293
v  8.6165 0.0000 -10.1293
v  8.6165 0.0000 -0.1293
v  -8.3835 0.0000 -0.1293
v  7.5860 15.5315 -10.1293
v  -7.3530 15.5315 -10.1293
v  -7.3530 15.5315 -0.1293
v  7.5860 15.5315 -0.1293
v  -8.3835 1.0125 13.6232
v  8.6165 1.0125 13.6232
v  8.6165 7.1755 13.6232
v  6.9981 7.1755 13.6232
v  -6.7651 7.1755 13.6232
v  -8.3835 7.1755 13.6232
v  8.6165 7.7657 -10.1293
v  8.6165 7.7657 -0.1293
v  8.6165 1.0125 -23.4789
v  -8.3835 1.0125 -23.4789
v  -8.3835 7.1755 -23.4789
v  8.6165 7.1755 -23.4789
v  -8.3835 7.7657 -0.1293
v  -8.3835 7.7657 -10.1293
v  -8.3835 0.0000 -15.1293
v  8.6165 0.0000 -15.1293
v  8.6165 0.0000 4.8707
v  -8.3835 0.0000 4.8707
v  7.4877 8.8148 -14.5884
v  -7.2548 8.8148 -14.5884
v  -6.4473 14.7167 -10.6702
v  6.6802 14.7167 -10.6702
v  -7.2548 8.8148 4.3298
v  7.4877 8.8148 4.3298
v  6.6802 14.7167 0.4116
v  -6.4473 14.7167 0.4116
v  8.6165 8.0000 -15.1293
v  8.6165 8.0000 4.8707
v  -8.3835 8.0000 4.8707
v  -8.3835 8.0000 -15.1293
v  6.9981 7.3734 11.5226
v  8.6165 7.3734 11.5226
v  -6.7651 7.3734 11.5226
v  -8.3835 7.3734 11.5226
v  -7.4809 14.5677 -1.1119
v  -7.4809 14.5677 -9.1467
v  -8.2556 8.7295 -9.1467
v  -8.2556 8.7295 -1.1119
v  7.7101 14.5960 -9.1856
v  7.7101 14.5960 -1.0730
v  8.4923 8.7013 -1.0730
v  8.4923 8.7013 -9.1856
v  8.6165 11.9965 14.0773
v  8.6165 12.1943 11.9767
v  6.9981 12.1943 11.9767
v  6.9981 11.9965 14.0773
v  -8.3835 12.1943 11.9767
v  -8.3835 11.9965 14.0773
v  -6.7651 11.9965 14.0773
v  -6.7651 12.1943 11.9767
v  8.6165 10.4829 11.8155
v  8.6165 10.2850 13.9161
v  6.9981 10.4829 11.8155
v  6.9981 10.2850 13.9161
v  -6.7651 10.2850 13.9161
v  -8.3835 10.2850 13.9161
v  -6.7651 10.4829 11.8155
v  -8.3835 10.4829 11.8155
v  10.8410 11.7829 12.3946
v  10.8410 11.6703 13.5900
v  10.8410 10.6964 13.4982
v  10.8410 10.8090 12.3029
v  4.7735 11.6703 13.5900
v  4.7735 11.7829 12.3946
v  4.7735 10.8090 12.3029
v  4.7735 10.6964 13.4982
v  8.3817 11.4781 16.9439
v  7.2329 11.4781 16.9439
v  7.2329 10.2633 16.7826
v  8.3817 10.2633 16.7826
v  -6.9999 11.4781 16.9439
v  -8.1487 11.4781 16.9439
v  -8.1487 10.2633 16.7826
v  -6.9999 10.2633 16.7826
v  -4.5406 11.7829 12.3946
v  -4.5406 11.6703 13.5900
v  -4.5406 10.6964 13.4982
v  -4.5406 10.8090 12.3029
v  -10.6081 11.6703 13.5900
v  -10.6081 11.7829 12.3946
v  -10.6081 10.8090 12.3029
v  -10.6081 10.6964 13.4982
# 90 vertices

vn 0.0000 -1.0000 -0.0000
vn 0.0000 1.0000 -0.0000
vn 0.0000 0.0000 1.0000
vn 1.0000 0.0000 -0.0000
vn 0.9991 0.0426 0.0020
vn 0.9991 0.0426 -0.0020
vn 0.0000 0.0000 -1.0000
vn -1.0000 0.0000 -0.0000
vn -0.9991 0.0426 -0.0020
vn -0.9991 0.0426 0.0020
vn 0.0000 -0.9982 -0.0603
vn 0.0000 -0.9983 0.0576
vn 0.0000 0.5531 -0.8331
vn 0.0000 0.5531 0.8331
vn 0.9994 0.0338 0.0016
vn 0.9913 0.1315 -0.0062
vn 0.9994 0.0338 -0.0016
vn -0.9994 0.0338 -0.0016
vn -0.9913 0.1315 0.0062
vn -0.9994 0.0338 0.0016
vn 0.0000 -0.9927 -0.1204
vn 0.0000 -0.9934 0.1149
vn 0.0000 0.9952 -0.0983
vn 0.0000 0.9956 0.0938
vn -0.9913 0.1315 -0.0000
vn -0.9913 0.1315 -0.0062
vn 0.9913 0.1315 -0.0000
vn 0.9913 0.1315 0.0062
vn -0.0000 0.5531 -0.8331
vn -0.0000 0.5531 0.8331
vn -0.9913 0.1315 0.0000
vn 0.9913 0.1315 0.0000
vn 0.0000 0.0938 -0.9956
vn 0.0000 -0.0938 0.9956
vn 0.0000 -0.1316 0.9913
vn 0.1642 0.9821 0.0925
vn 0.2002 -0.0919 0.9754
vn 0.1642 -0.9821 -0.0925
vn 0.2002 0.0919 -0.9754
vn -0.1642 0.9821 0.0925
vn -0.2002 0.0919 -0.9754
vn -0.1642 -0.9821 -0.0925
vn -0.2002 -0.0919 0.9754
vn 0.0000 0.9840 0.1779
vn -0.9966 -0.0077 0.0816
vn -0.9968 -0.0106 0.0797
vn 0.0000 -1.0000 -0.0076
vn 0.9967 -0.0076 0.0803
vn 0.9966 -0.0108 0.0816
# 49 vertex normals

g Box001
usemtl Material__36
f 1//1 2//1 3//1 
f 3//1 4//1 1//1 
f 5//2 6//2 7//2 
f 7//2 8//2 5//2 
f 9//3 10//3 11//3 
f 9//3 11//3 12//3 
f 9//3 12//3 13//3 
f 9//3 13//3 14//3 
f 2//4 15//5 16//6 
f 16//6 3//4 2//4 
f 17//7 18//7 19//7 
f 19//7 20//7 17//7 
f 4//8 21//9 22//10 
f 22//10 1//8 4//8 
f 23//11 24//11 2//1 
f 2//1 1//1 23//11 
f 25//12 26//12 4//1 
f 4//1 3//1 25//12 
usemtl 01___Default
f 27//13 28//13 29//13 
f 29//13 30//13 27//13 
f 31//14 32//14 33//14 
f 33//14 34//14 31//14 
usemtl Material__36
f 24//4 35//15 15//5 
f 15//5 2//4 24//4 
f 8//16 36//17 16//6 
f 26//8 37//18 21//9 
f 21//9 4//8 26//8 
f 6//19 38//20 22//10 
f 18//21 17//21 24//11 
f 24//11 23//11 18//21 
f 10//22 9//22 26//12 
f 26//12 25//12 10//22 
f 20//23 19//23 38//23 
f 38//23 35//23 20//23 
f 39//24 40//24 36//24 
f 41//24 39//24 36//24 
f 42//24 41//24 36//24 
f 37//24 42//24 36//24 
f 17//4 20//4 35//15 
f 35//15 24//4 17//4 
f 11//4 10//4 25//4 
f 40//4 11//4 25//4 
f 36//17 40//4 25//4 
f 9//8 14//8 42//8 
f 9//8 42//8 37//18 
f 26//8 9//8 37//18 
f 19//8 18//8 23//8 
f 23//8 38//20 19//8 
usemtl 01___Default
f 43//25 44//25 45//25 
f 45//25 46//25 43//25 
usemtl Material__36
f 38//20 23//8 1//8 
f 1//8 22//10 38//20 
f 37//18 7//26 21//9 
usemtl 01___Default
f 47//27 48//27 49//27 
f 49//27 50//27 47//27 
usemtl Material__36
f 36//17 25//4 3//4 
f 3//4 16//6 36//17 
f 35//15 5//28 15//5 
f 5//13 35//13 27//13 
f 27//29 30//29 5//29 
f 35//13 38//13 28//13 
f 28//13 27//13 35//13 
f 38//13 6//13 29//13 
f 29//29 28//29 38//29 
f 6//13 5//13 30//13 
f 30//13 29//13 6//13 
f 7//30 37//30 31//30 
f 31//14 34//14 7//14 
f 37//14 36//14 32//14 
f 32//14 31//14 37//14 
f 36//30 8//30 33//30 
f 33//14 32//14 36//14 
f 8//14 7//14 34//14 
f 34//14 33//14 8//14 
f 7//25 6//25 44//25 
f 44//25 43//25 7//25 
f 6//25 22//25 45//25 
f 45//25 44//25 6//25 
f 22//25 21//25 46//25 
f 46//25 45//25 22//25 
f 21//31 7//31 43//31 
f 43//31 46//31 21//31 
f 5//27 8//27 48//27 
f 48//27 47//27 5//27 
f 8//27 16//27 49//27 
f 49//32 48//32 8//32 
f 16//27 15//27 50//27 
f 50//27 49//27 16//27 
f 15//27 5//27 47//27 
f 47//32 50//32 15//32 
f 12//24 39//24 41//24 
f 41//24 13//24 12//24 
f 51//24 52//24 53//24 
f 53//24 54//24 51//24 
f 55//24 56//24 57//24 
f 57//24 58//24 55//24 
f 40//4 59//4 60//4 
f 60//4 11//4 40//4 
f 39//33 61//33 59//33 
f 59//33 40//33 39//33 
f 12//8 62//8 61//8 
f 61//8 39//8 12//8 
f 11//34 60//34 62//34 
f 62//34 12//34 11//34 
f 13//34 63//34 64//34 
f 64//34 14//34 13//34 
f 41//4 65//4 63//4 
f 63//4 13//4 41//4 
f 42//33 66//33 65//33 
f 65//33 41//33 42//33 
f 14//8 64//8 66//8 
f 66//8 42//8 14//8 
usemtl Material__37
f 67//4 68//4 69//4 
f 69//4 70//4 67//4 
usemtl Material__36
f 53//33 52//33 59//33 
f 59//33 61//33 53//33 
usemtl Material__37
f 71//8 72//8 73//8 
f 73//8 74//8 71//8 
f 75//35 76//35 77//35 
f 77//35 78//35 75//35 
f 79//35 80//35 81//35 
f 81//35 82//35 79//35 
f 83//4 84//4 85//4 
f 85//4 86//4 83//4 
usemtl Material__36
f 55//33 58//33 65//33 
f 65//33 66//33 55//33 
usemtl Material__37
f 87//8 88//8 89//8 
f 89//8 90//8 87//8 
usemtl Material__36
f 52//36 51//36 68//36 
f 68//36 67//36 52//36 
f 51//37 60//37 69//37 
f 69//37 68//37 51//37 
f 60//38 59//38 70//38 
f 70//38 69//38 60//38 
f 59//39 52//39 67//39 
f 67//39 70//39 59//39 
f 54//40 53//40 72//40 
f 72//40 71//40 54//40 
f 53//41 61//41 73//41 
f 73//41 72//41 53//41 
f 61//42 62//42 74//42 
f 74//42 73//42 61//42 
f 62//43 54//43 71//43 
f 71//43 74//43 62//43 
f 58//36 57//36 84//36 
f 84//36 83//36 58//36 
f 57//37 63//37 85//37 
f 85//37 84//37 57//37 
f 63//38 65//38 86//38 
f 86//38 85//38 63//38 
f 65//39 58//39 83//39 
f 83//39 86//39 65//39 
f 56//40 55//40 88//40 
f 88//40 87//40 56//40 
f 55//41 66//41 89//41 
f 89//41 88//41 55//41 
f 66//42 64//42 90//42 
f 90//42 89//42 66//42 
f 64//43 56//43 87//43 
f 87//43 90//43 64//43 
usemtl Material__37
f 51//44 54//44 76//44 
f 76//44 75//44 51//44 
f 54//45 62//45 77//45 
f 77//46 76//46 54//46 
f 62//47 60//47 78//47 
f 78//47 77//47 62//47 
f 60//48 51//48 75//48 
f 75//49 78//49 60//49 
f 57//44 56//44 80//44 
f 80//44 79//44 57//44 
f 56//45 64//45 81//45 
f 81//46 80//46 56//46 
f 64//47 63//47 82//47 
f 82//47 81//47 64//47 
f 63//48 57//48 79//48 
f 79//49 82//49 63//49 
# 176 faces

