# 3ds Max Wavefront OBJ Exporter v0.97b - (c)2007 guruware
# File Created: 09.12.2011 14:44:16

newmtl 12248_Bird_v1
	Ns 28.0000
	Ni 1.5000
	d 1.0000
	Tr 0.0000
	Tf 1.0000 1.0000 1.0000 
	illum 2
	Ka 1.0000 1.0000 1.0000
	Kd 1.0000 1.0000 1.0000
	Ks 0.2880 0.2880 0.2880
	Ke 0.0000 0.0000 0.0000
	map_Ka duck.png
	map_Kd duck.png
