# 3ds Max Wavefront OBJ Exporter v0.97b - (c)2007 guruware
# File Created: 02.04.2021 12:45:09

#
# object Hedra001
#

v  0.816497 0.577350 -0.000000
v  -0.000000 -0.577350 -0.816497
v  -0.816497 0.577350 0.000000
v  0.000000 -0.577350 0.816497
# 4 vertices

vn -0.000000 0.577350 -0.816497
vn 0.000000 0.577350 0.816497
vn 0.816497 -0.577350 -0.000000
vn -0.816497 -0.577350 0.000000
# 4 vertex normals

vt 0.500000 0.500000 0.000000
vt -0.500000 0.000000 0.500000
vt 0.500000 -0.500000 0.000000
vt -0.500000 -0.000000 -0.500000
vt -0.500000 -0.500000 -0.000000
vt 0.000000 0.500000 0.500000
vt 0.000000 0.500000 -0.500000
# 7 texture coords

g Hedra001
s off
f 1/1/1 2/2/1 3/3/1 
f 3/3/2 4/4/2 1/1/2 
f 4/5/3 2/3/3 1/6/3 
f 4/5/4 3/7/4 2/3/4 
# 4 faces

